{"count":2333,"current_page":1,"total_pages":117,"results":[{"id":74557,"uuid":"11AAS-ASV-A01-2016-2017","room":"","centre":"Ashok Vihar","academic_year":"2016-2017","display_name":"11AAS-ASV-A01","product":"11AAS","instructor":"","subject":"AAS","capacity":35,"enrolled_students":0,"get_fill_rate":0.0,"start_date":"2016-04-01","get_absolute_url":"/batch/11AAS-ASV-A01-2016-2017/summary/","get_attendance_percentage":{"absent":0,"late_present":0,"present":0,"not_joined":0},"permissions":{"is_enabled":true,"is_share_allowed":false,"is_read_allowed":true,"is_import_allowed":false,"is_report_allowed":false,"is_create_allowed":false,"is_print_allowed":true,"is_delete_allowed":false,"is_export_allowed":false,"is_email_allowed":false,"is_update_allowed":false,"is_setup_allowed":false},"next_class":"Class Not Schedule","lp_complete":"0.00"},{"id":74558,"uuid":"12AAS-ASV-A01-2016-2017","room":"","centre":"Ashok Vihar","academic_year":"2016-2017","display_name":"12AAS-ASV-A01","product":"12AAS","instructor":"","subject":"AAS","capacity":35,"enrolled_students":0,"get_fill_rate":0.0,"start_date":"2016-04-01","get_absolute_url":"/batch/12AAS-ASV-A01-2016-2017/summary/","get_attendance_percentage":{"absent":0,"late_present":0,"present":0,"not_joined":0},"permissions":{"is_enabled":true,"is_share_allowed":false,"is_read_allowed":true,"is_import_allowed":false,"is_report_allowed":false,"is_create_allowed":false,"is_print_allowed":true,"is_delete_allowed":false,"is_export_allowed":false,"is_email_allowed":false,"is_update_allowed":false,"is_setup_allowed":false},"next_class":"Class Not Schedule","lp_complete":"0.00"},{"id":74559,"uuid":"10MATP-ASV-B02-2016-2017","room":"","centre":"Ashok Vihar","academic_year":"2016-2017","display_name":"10MATP-ASV-B02","product":"10MAT Premium","instructor":"Parmeet Singh","subject":"MAT","capacity":30,"enrolled_students":0,"get_fill_rate":0.0,"start_date":"2016-04-01","get_absolute_url":"/batch/10MATP-ASV-B02-2016-2017/summary/","get_attendance_percentage":{"absent":0,"late_present":0,"present":0,"not_joined":0},"permissions":{"is_enabled":true,"is_share_allowed":false,"is_read_allowed":true,"is_import_allowed":false,"is_report_allowed":false,"is_create_allowed":false,"is_print_allowed":true,"is_delete_allowed":false,"is_export_allowed":false,"is_email_allowed":false,"is_update_allowed":false,"is_setup_allowed":false},"next_class":"26 Dec, 2016","lp_complete":"0.00"},{"id":74560,"uuid":"10CHEP-ASV-B02-2016-2017","room":"","centre":"Ashok Vihar","academic_year":"2016-2017","display_name":"10CHEP-ASV-B02","product":"10CHE Premium","instructor":"Ravinder Aggarwal","subject":"CHE","capacity":30,"enrolled_students":0,"get_fill_rate":0.0,"start_date":"2016-04-01","get_absolute_url":"/batch/10CHEP-ASV-B02-2016-2017/summary/","get_attendance_percentage":{"absent":0,"late_present":0,"present":0,"not_joined":0},"permissions":{"is_enabled":true,"is_share_allowed":false,"is_read_allowed":true,"is_import_allowed":false,"is_report_allowed":false,"is_create_allowed":false,"is_print_allowed":true,"is_delete_allowed":false,"is_export_allowed":false,"is_email_allowed":false,"is_update_allowed":false,"is_setup_allowed":false},"next_class":"30 Dec, 2016","lp_complete":"0.00"},{"id":74561,"uuid":"10PHYP-ASV-B02-2016-2017","room":"","centre":"Ashok Vihar","academic_year":"2016-2017","display_name":"10PHYP-ASV-B02","product":"10PHY Premium","instructor":"Ravinder Aggarwal","subject":"PHY","capacity":30,"enrolled_students":0,"get_fill_rate":0.0,"start_date":"2016-04-01","get_absolute_url":"/batch/10PHYP-ASV-B02-2016-2017/summary/","get_attendance_percentage":{"absent":0,"late_present":0,"present":0,"not_joined":0},"permissions":{"is_enabled":true,"is_share_allowed":false,"is_read_allowed":true,"is_import_allowed":false,"is_report_allowed":false,"is_create_allowed":false,"is_print_allowed":true,"is_delete_allowed":false,"is_export_allowed":false,"is_email_allowed":false,"is_update_allowed":false,"is_setup_allowed":false},"next_class":"26 Dec, 2016","lp_complete":"0.00"},{"id":74562,"uuid":"10BIOP-ASV-B02-2016-2017","room":"","centre":"Ashok Vihar","academic_year":"2016-2017","display_name":"10BIOP-ASV-B02","product":"10BIO Premium","instructor":"Jyoti Rani","subject":"BIO","capacity":30,"enrolled_students":0,"get_fill_rate":0.0,"start_date":"2016-04-01","get_absolute_url":"/batch/10BIOP-ASV-B02-2016-2017/summary/","get_attendance_percentage":{"absent":0,"late_present":0,"present":0,"not_joined":0},"permissions":{"is_enabled":true,"is_share_allowed":false,"is_read_allowed":true,"is_import_allowed":false,"is_report_allowed":false,"is_create_allowed":false,"is_print_allowed":true,"is_delete_allowed":false,"is_export_allowed":false,"is_email_allowed":false,"is_update_allowed":false,"is_setup_allowed":false},"next_class":"Class Not Schedule","lp_complete":"0.00"},{"id":74563,"uuid":"09ENGP-ASV-B01-2016-2017","room":"","centre":"Ashok Vihar","academic_year":"2016-2017","display_name":"09ENGP-ASV-B01","product":"09ENG Premium","instructor":"Sagarika Malhotra","subject":"ENG","capacity":25,"enrolled_students":0,"get_fill_rate":0.0,"start_date":"2016-04-01","get_absolute_url":"/batch/09ENGP-ASV-B01-2016-2017/summary/","get_attendance_percentage":{"absent":0,"late_present":0,"present":0,"not_joined":0},"permissions":{"is_enabled":true,"is_share_allowed":false,"is_read_allowed":true,"is_import_allowed":false,"is_report_allowed":false,"is_create_allowed":false,"is_print_allowed":true,"is_delete_allowed":false,"is_export_allowed":false,"is_email_allowed":false,"is_update_allowed":false,"is_setup_allowed":false},"next_class":"26 Dec, 2016","lp_complete":"0.00"},{"id":74564,"uuid":"09MATP-ASV-B01-2016-2017","room":"","centre":"Ashok Vihar","academic_year":"2016-2017","display_name":"09MATP-ASV-B01","product":"09MAT Premium","instructor":"Parmeet Singh","subject":"MAT","capacity":25,"enrolled_students":0,"get_fill_rate":0.0,"start_date":"2016-04-01","get_absolute_url":"/batch/09MATP-ASV-B01-2016-2017/summary/","get_attendance_percentage":{"absent":0,"late_present":0,"present":0,"not_joined":0},"permissions":{"is_enabled":true,"is_share_allowed":false,"is_read_allowed":true,"is_import_allowed":false,"is_report_allowed":false,"is_create_allowed":false,"is_print_allowed":true,"is_delete_allowed":false,"is_export_allowed":false,"is_email_allowed":false,"is_update_allowed":false,"is_setup_allowed":false},"next_class":"26 Dec, 2016","lp_complete":"0.00"},{"id":74565,"uuid":"09CHEP-ASV-B01-2016-2017","room":"","centre":"Ashok Vihar","academic_year":"2016-2017","display_name":"09CHEP-ASV-B01","product":"09CHE Premium","instructor":"Ravinder Aggarwal","subject":"CHE","capacity":25,"enrolled_students":0,"get_fill_rate":0.0,"start_date":"2016-04-01","get_absolute_url":"/batch/09CHEP-ASV-B01-2016-2017/summary/","get_attendance_percentage":{"absent":0,"late_present":0,"present":0,"not_joined":0},"permissions":{"is_enabled":true,"is_share_allowed":false,"is_read_allowed":true,"is_import_allowed":false,"is_report_allowed":false,"is_create_allowed":false,"is_print_allowed":true,"is_delete_allowed":false,"is_export_allowed":false,"is_email_allowed":false,"is_update_allowed":false,"is_setup_allowed":false},"next_class":"30 Dec, 2016","lp_complete":"0.00"},{"id":74566,"uuid":"09PHYP-ASV-B01-2016-2017","room":"","centre":"Ashok Vihar","academic_year":"2016-2017","display_name":"09PHYP-ASV-B01","product":"09PHY Premium","instructor":"Ravinder Aggarwal","subject":"PHY","capacity":25,"enrolled_students":0,"get_fill_rate":0.0,"start_date":"2016-04-01","get_absolute_url":"/batch/09PHYP-ASV-B01-2016-2017/summary/","get_attendance_percentage":{"absent":0,"late_present":0,"present":0,"not_joined":0},"permissions":{"is_enabled":true,"is_share_allowed":false,"is_read_allowed":true,"is_import_allowed":false,"is_report_allowed":false,"is_create_allowed":false,"is_print_allowed":true,"is_delete_allowed":false,"is_export_allowed":false,"is_email_allowed":false,"is_update_allowed":false,"is_setup_allowed":false},"next_class":"28 Dec, 2016","lp_complete":"0.00"},{"id":74567,"uuid":"09BIOP-ASV-B01-2016-2017","room":"","centre":"Ashok Vihar","academic_year":"2016-2017","display_name":"09BIOP-ASV-B01","product":"09BIO Premium","instructor":"Jyoti Rani","subject":"BIO","capacity":25,"enrolled_students":0,"get_fill_rate":0.0,"start_date":"2016-04-01","get_absolute_url":"/batch/09BIOP-ASV-B01-2016-2017/summary/","get_attendance_percentage":{"absent":0,"late_present":0,"present":0,"not_joined":0},"permissions":{"is_enabled":true,"is_share_allowed":false,"is_read_allowed":true,"is_import_allowed":false,"is_report_allowed":false,"is_create_allowed":false,"is_print_allowed":true,"is_delete_allowed":false,"is_export_allowed":false,"is_email_allowed":false,"is_update_allowed":false,"is_setup_allowed":false},"next_class":"26 Dec, 2016","lp_complete":"0.00"},{"id":74568,"uuid":"09SSTP-ASV-B01-2016-2017","room":"","centre":"Ashok Vihar","academic_year":"2016-2017","display_name":"09SSTP-ASV-B01","product":"09SST Premium","instructor":"Sushil Kumar","subject":"SST","capacity":25,"enrolled_students":0,"get_fill_rate":0.0,"start_date":"2016-04-01","get_absolute_url":"/batch/09SSTP-ASV-B01-2016-2017/summary/","get_attendance_percentage":{"absent":0,"late_present":0,"present":0,"not_joined":0},"permissions":{"is_enabled":true,"is_share_allowed":false,"is_read_allowed":true,"is_import_allowed":false,"is_report_allowed":false,"is_create_allowed":false,"is_print_allowed":true,"is_delete_allowed":false,"is_export_allowed":false,"is_email_allowed":false,"is_update_allowed":false,"is_setup_allowed":false},"next_class":"Class Not Schedule","lp_complete":"0.00"},{"id":74569,"uuid":"10ENGP-ASV-B01-2016-2017","room":"","centre":"Ashok Vihar","academic_year":"2016-2017","display_name":"10ENGP-ASV-B01","product":"10ENG Premium","instructor":"Sagarika Malhotra","subject":"ENG","capacity":25,"enrolled_students":0,"get_fill_rate":0.0,"start_date":"2016-04-01","get_absolute_url":"/batch/10ENGP-ASV-B01-2016-2017/summary/","get_attendance_percentage":{"absent":0,"late_present":0,"present":0,"not_joined":0},"permissions":{"is_enabled":true,"is_share_allowed":false,"is_read_allowed":true,"is_import_allowed":false,"is_report_allowed":false,"is_create_allowed":false,"is_print_allowed":true,"is_delete_allowed":false,"is_export_allowed":false,"is_email_allowed":false,"is_update_allowed":false,"is_setup_allowed":false},"next_class":"27 Dec, 2016","lp_complete":"0.00"},{"id":74570,"uuid":"10MATP-ASV-B01-2016-2017","room":"","centre":"Ashok Vihar","academic_year":"2016-2017","display_name":"10MATP-ASV-B01","product":"10MAT Premium","instructor":"Parmeet Singh","subject":"MAT","capacity":25,"enrolled_students":0,"get_fill_rate":0.0,"start_date":"2016-04-01","get_absolute_url":"/batch/10MATP-ASV-B01-2016-2017/summary/","get_attendance_percentage":{"absent":0,"late_present":0,"present":0,"not_joined":0},"permissions":{"is_enabled":true,"is_share_allowed":false,"is_read_allowed":true,"is_import_allowed":false,"is_report_allowed":false,"is_create_allowed":false,"is_print_allowed":true,"is_delete_allowed":false,"is_export_allowed":false,"is_email_allowed":false,"is_update_allowed":false,"is_setup_allowed":false},"next_class":"30 Dec, 2016","lp_complete":"0.00"},{"id":74571,"uuid":"10CHEP-ASV-B01-2016-2017","room":"","centre":"Ashok Vihar","academic_year":"2016-2017","display_name":"10CHEP-ASV-B01","product":"10CHE Premium","instructor":"Ravinder Aggarwal","subject":"CHE","capacity":25,"enrolled_students":0,"get_fill_rate":0.0,"start_date":"2016-04-01","get_absolute_url":"/batch/10CHEP-ASV-B01-2016-2017/summary/","get_attendance_percentage":{"absent":0,"late_present":0,"present":0,"not_joined":0},"permissions":{"is_enabled":true,"is_share_allowed":false,"is_read_allowed":true,"is_import_allowed":false,"is_report_allowed":false,"is_create_allowed":false,"is_print_allowed":true,"is_delete_allowed":false,"is_export_allowed":false,"is_email_allowed":false,"is_update_allowed":false,"is_setup_allowed":false},"next_class":"Class Not Schedule","lp_complete":"0.00"},{"id":74572,"uuid":"10PHYP-ASV-B01-2016-2017","room":"","centre":"Ashok Vihar","academic_year":"2016-2017","display_name":"10PHYP-ASV-B01","product":"10PHY Premium","instructor":"Ravinder Aggarwal","subject":"PHY","capacity":25,"enrolled_students":0,"get_fill_rate":0.0,"start_date":"2016-04-01","get_absolute_url":"/batch/10PHYP-ASV-B01-2016-2017/summary/","get_attendance_percentage":{"absent":0,"late_present":0,"present":0,"not_joined":0},"permissions":{"is_enabled":true,"is_share_allowed":false,"is_read_allowed":true,"is_import_allowed":false,"is_report_allowed":false,"is_create_allowed":false,"is_print_allowed":true,"is_delete_allowed":false,"is_export_allowed":false,"is_email_allowed":false,"is_update_allowed":false,"is_setup_allowed":false},"next_class":"26 Dec, 2016","lp_complete":"0.00"},{"id":74573,"uuid":"10BIOP-ASV-B01-2016-2017","room":"","centre":"Ashok Vihar","academic_year":"2016-2017","display_name":"10BIOP-ASV-B01","product":"10BIO Premium","instructor":"Jyoti Rani","subject":"BIO","capacity":25,"enrolled_students":0,"get_fill_rate":0.0,"start_date":"2016-04-01","get_absolute_url":"/batch/10BIOP-ASV-B01-2016-2017/summary/","get_attendance_percentage":{"absent":0,"late_present":0,"present":0,"not_joined":0},"permissions":{"is_enabled":true,"is_share_allowed":false,"is_read_allowed":true,"is_import_allowed":false,"is_report_allowed":false,"is_create_allowed":false,"is_print_allowed":true,"is_delete_allowed":false,"is_export_allowed":false,"is_email_allowed":false,"is_update_allowed":false,"is_setup_allowed":false},"next_class":"26 Dec, 2016","lp_complete":"0.00"},{"id":74574,"uuid":"10SSTP-ASV-B01-2016-2017","room":"","centre":"Ashok Vihar","academic_year":"2016-2017","display_name":"10SSTP-ASV-B01","product":"10SST Premium","instructor":"Sushil Kumar","subject":"SST","capacity":25,"enrolled_students":0,"get_fill_rate":0.0,"start_date":"2016-04-01","get_absolute_url":"/batch/10SSTP-ASV-B01-2016-2017/summary/","get_attendance_percentage":{"absent":0,"late_present":0,"present":0,"not_joined":0},"permissions":{"is_enabled":true,"is_share_allowed":false,"is_read_allowed":true,"is_import_allowed":false,"is_report_allowed":false,"is_create_allowed":false,"is_print_allowed":true,"is_delete_allowed":false,"is_export_allowed":false,"is_email_allowed":false,"is_update_allowed":false,"is_setup_allowed":false},"next_class":"26 Dec, 2016","lp_complete":"0.00"},{"id":74575,"uuid":"11ACC-ASV-B01-2016-2017","room":"","centre":"Ashok Vihar","academic_year":"2016-2017","display_name":"11ACC-ASV-B01","product":"11ACC","instructor":"Abhishek Bhatia","subject":"ACC","capacity":35,"enrolled_students":0,"get_fill_rate":0.0,"start_date":"2016-04-01","get_absolute_url":"/batch/11ACC-ASV-B01-2016-2017/summary/","get_attendance_percentage":{"absent":0,"late_present":0,"present":0,"not_joined":0},"permissions":{"is_enabled":true,"is_share_allowed":false,"is_read_allowed":true,"is_import_allowed":false,"is_report_allowed":false,"is_create_allowed":false,"is_print_allowed":true,"is_delete_allowed":false,"is_export_allowed":false,"is_email_allowed":false,"is_update_allowed":false,"is_setup_allowed":false},"next_class":"27 Dec, 2016","lp_complete":"0.00"},{"id":74576,"uuid":"11BIO-ASV-B01-2016-2017","room":"","centre":"Ashok Vihar","academic_year":"2016-2017","display_name":"11BIO-ASV-B01","product":"11BIO","instructor":"Neelam Rathore","subject":"BIO","capacity":35,"enrolled_students":0,"get_fill_rate":0.0,"start_date":"2016-04-01","get_absolute_url":"/batch/11BIO-ASV-B01-2016-2017/summary/","get_attendance_percentage":{"absent":0,"late_present":0,"present":0,"not_joined":0},"permissions":{"is_enabled":true,"is_share_allowed":false,"is_read_allowed":true,"is_import_allowed":false,"is_report_allowed":false,"is_create_allowed":false,"is_print_allowed":true,"is_delete_allowed":false,"is_export_allowed":false,"is_email_allowed":false,"is_update_allowed":false,"is_setup_allowed":false},"next_class":"Class Not Schedule","lp_complete":"0.00"}],"next":"http://127.0.0.1:8000/api/batch_listing/?format=json&page=2","per_page_record":20,"previous":null}